{
	"info": {
		"_postman_id": "208aa6fe-89fc-4ae6-b791-bec21850cd5d",
		"name": "OB Spring REST",
		"schema": "https://schema.getpostman.com/json/collection/v2.1.0/collection.json"
	},
	"item": [
		{
			"name": "/api/books (Buscar Todos)",
			"request": {
				"method": "GET",
				"header": [],
				"url": {
					"raw": "localhost:8080/api/books",
					"host": [
						"localhost"
					],
					"port": "8080",
					"path": [
						"api",
						"books"
					]
				}
			},
			"response": []
		},
		{
			"name": "/hola",
			"request": {
				"method": "GET",
				"header": [],
				"url": {
					"raw": "localhost:8080/hola",
					"host": [
						"localhost"
					],
					"port": "8080",
					"path": [
						"hola"
					]
				}
			},
			"response": []
		},
		{
			"name": "/api/books/1 (Buscar Uno)",
			"request": {
				"method": "GET",
				"header": [],
				"url": {
					"raw": "localhost:8080/api/books/1",
					"host": [
						"localhost"
					],
					"port": "8080",
					"path": [
						"api",
						"books",
						"1"
					]
				}
			},
			"response": []
		},
		{
			"name": "/api/books (Crear)",
			"request": {
				"method": "POST",
				"header": [],
				"body": {
					"mode": "raw",
					"raw": "{\r\n    \"title\": \"Quimica perfecta\",\r\n    \"author\": \"Simone Elkeles\",\r\n    \"pages\": 580,\r\n    \"price\": 23.99,\r\n    \"releaseDate\": \"2020-11-25\",\r\n    \"online\": false\r\n}",
					"options": {
						"raw": {
							"language": "json"
						}
					}
				},
				"url": {
					"raw": "localhost:8080/api/books",
					"host": [
						"localhost"
					],
					"port": "8080",
					"path": [
						"api",
						"books"
					]
				}
			},
			"response": []
		},
		{
			"name": "/api/books (Actualizar)",
			"request": {
				"method": "PUT",
				"header": [],
				"body": {
					"mode": "raw",
					"raw": "{\r\n    \"id\": 2,\r\n    \"title\": \"Quimica perfecta\",\r\n    \"author\": \"Simone Elkeles\",\r\n    \"pages\": 580,\r\n    \"price\": 23.99,\r\n    \"releaseDate\": \"2020-11-25\",\r\n    \"online\": false\r\n}",
					"options": {
						"raw": {
							"language": "json"
						}
					}
				},
				"url": {
					"raw": "localhost:8080/api/books",
					"host": [
						"localhost"
					],
					"port": "8080",
					"path": [
						"api",
						"books"
					]
				}
			},
			"response": []
		},
		{
			"name": "/api/books/1 (Eliminar Uno)",
			"request": {
				"method": "DELETE",
				"header": [],
				"url": {
					"raw": "localhost:8080/api/books/1",
					"host": [
						"localhost"
					],
					"port": "8080",
					"path": [
						"api",
						"books",
						"1"
					]
				}
			},
			"response": []
		},
		{
			"name": "/api/books (Eliminar Todos)",
			"request": {
				"method": "DELETE",
				"header": [],
				"url": {
					"raw": "localhost:8080/api/books",
					"host": [
						"localhost"
					],
					"port": "8080",
					"path": [
						"api",
						"books"
					]
				}
			},
			"response": []
		}
	]
}