C:\Users\Javier\Desktop\ejercicios-sesiones-10.11.12\src\main\java\com\example\ejerciciossesiones101112\ejercicio\entities\Laptop.java
C:\Users\Javier\Desktop\ejercicios-sesiones-10.11.12\src\main\java\com\example\ejerciciossesiones101112\ejercicio\controller\LaptopController.java
C:\Users\Javier\Desktop\ejercicios-sesiones-10.11.12\src\main\java\com\example\ejerciciossesiones101112\ejercicio\repository\LaptopRepository.java
C:\Users\Javier\Desktop\ejercicios-sesiones-10.11.12\src\main\java\com\example\ejerciciossesiones101112\ejercicio\main.java
C:\Users\Javier\Desktop\ejercicios-sesiones-10.11.12\src\main\java\com\example\ejerciciossesiones101112\ejercicio\controller\HelloController.java
